{
  "msgs": [
        {
          "name": "Иван Иванов",
          "avatar": "previews/01.png",
           "msg": [
                {
                    "text": "первое сообщение",
                    "date": "14/04/2015"
                },
                {
                    "text": "второе сообщение",
                    "date": "14/04/2015"
                },
                {
                    "text": "третье сообщение",
                    "date": "20/04/2015"
                },
                {
                    "text": "четвертое сообщение",
                    "date": "20/04/2015"
                },
                {
                    "text": "пятое сообщение",
                    "date": "20/04/2015"
                }
            ]
        },
        {
          "name": "Маша Смирнова",
          "avatar": "previews/03.png",
           "msg": [
                {
                    "text": "первое сообщение",
                    "date": "14/04/2015"
                },
                {
                    "text": "второе сообщение",
                    "date": "14/04/2015"
                },
                {
                    "text": "третье сообщение",
                    "date": "20/04/2015"
                },
                {
                    "text": "четвертое сообщение",
                    "date": "20/04/2015"
                },
                {
                    "text": "пятое сообщение",
                    "date": "20/04/2015"
                }
            ]
        },
        {
          "name": "Филипп Киркоров",
          "avatar": "previews/04.png",
           "msg": [
                {
                    "text": "первое сообщение",
                    "date": "14/04/2015"
                },
                {
                    "text": "второе сообщение",
                    "date": "14/04/2015"
                },
                {
                    "text": "третье сообщение",
                    "date": "20/04/2015"
                },
                {
                    "text": "четвертое сообщение",
                    "date": "20/04/2015"
                },
                {
                    "text": "пятое сообщение",
                    "date": "20/04/2015"
                }
            ]
        }


      ]
}